G04 #@! TF.GenerationSoftware,KiCad,Pcbnew,(5.1.4-0)*
G04 #@! TF.CreationDate,2021-05-02T13:17:58+02:00*
G04 #@! TF.ProjectId,tetraVCA_Faceplate,74657472-6156-4434-915f-46616365706c,rev?*
G04 #@! TF.SameCoordinates,Original*
G04 #@! TF.FileFunction,Profile,NP*
%FSLAX46Y46*%
G04 Gerber Fmt 4.6, Leading zero omitted, Abs format (unit mm)*
G04 Created by KiCad (PCBNEW (5.1.4-0)) date 2021-05-02 13:17:58*
%MOMM*%
%LPD*%
G04 APERTURE LIST*
%ADD10C,0.150000*%
G04 APERTURE END LIST*
D10*
X78105000Y-77500000D02*
G75*
G03X78105000Y-77500000I-1505000J0D01*
G01*
X88300000Y-63400000D02*
X92800000Y-63400000D01*
X78105000Y-120500000D02*
G75*
G03X78105000Y-120500000I-1505000J0D01*
G01*
X78105000Y-99000000D02*
G75*
G03X78105000Y-99000000I-1505000J0D01*
G01*
X78105000Y-56000000D02*
G75*
G03X78105000Y-56000000I-1505000J0D01*
G01*
X92800000Y-109600000D02*
X88300000Y-109600000D01*
X88300000Y-109600000D02*
X88300000Y-106400000D01*
X88300000Y-106400000D02*
X92800000Y-106400000D01*
X92800000Y-106400000D02*
X92800000Y-109600000D01*
X92800000Y-88100000D02*
X88300000Y-88100000D01*
X88300000Y-88100000D02*
X88300000Y-84900000D01*
X88300000Y-84900000D02*
X92800000Y-84900000D01*
X92800000Y-84900000D02*
X92800000Y-88100000D01*
X92800000Y-66600000D02*
X88300000Y-66600000D01*
X88300000Y-66600000D02*
X88300000Y-63400000D01*
X92800000Y-63400000D02*
X92800000Y-66600000D01*
X88300000Y-45100000D02*
X88300000Y-41900000D01*
X92800000Y-45100000D02*
X88300000Y-45100000D01*
X92800000Y-41900000D02*
X92800000Y-45100000D01*
X88300000Y-41900000D02*
X92800000Y-41900000D01*
X124200000Y-145000000D02*
G75*
G03X124200000Y-145000000I-3100000J0D01*
G01*
X110200000Y-145000000D02*
G75*
G03X110200000Y-145000000I-3100000J0D01*
G01*
X96200000Y-145000000D02*
G75*
G03X96200000Y-145000000I-3100000J0D01*
G01*
X82200000Y-145000000D02*
G75*
G03X82200000Y-145000000I-3100000J0D01*
G01*
X124200000Y-133000000D02*
G75*
G03X124200000Y-133000000I-3100000J0D01*
G01*
X110200000Y-133000000D02*
G75*
G03X110200000Y-133000000I-3100000J0D01*
G01*
X96200000Y-133000000D02*
G75*
G03X96200000Y-133000000I-3100000J0D01*
G01*
X82200000Y-133000000D02*
G75*
G03X82200000Y-133000000I-3100000J0D01*
G01*
X109450000Y-111500000D02*
G75*
G03X109450000Y-111500000I-3500000J0D01*
G01*
X109450000Y-90000000D02*
G75*
G03X109450000Y-90000000I-3500000J0D01*
G01*
X109450000Y-68500000D02*
G75*
G03X109450000Y-68500000I-3500000J0D01*
G01*
X126300000Y-116000000D02*
G75*
G03X126300000Y-116000000I-5000000J0D01*
G01*
X94100000Y-116000000D02*
G75*
G03X94100000Y-116000000I-3500000J0D01*
G01*
X126300000Y-94500000D02*
G75*
G03X126300000Y-94500000I-5000000J0D01*
G01*
X94100000Y-94500000D02*
G75*
G03X94100000Y-94500000I-3500000J0D01*
G01*
X126300000Y-73000000D02*
G75*
G03X126300000Y-73000000I-5000000J0D01*
G01*
X94100000Y-73000000D02*
G75*
G03X94100000Y-73000000I-3500000J0D01*
G01*
X109450000Y-47000000D02*
G75*
G03X109450000Y-47000000I-3500000J0D01*
G01*
X126300000Y-51500000D02*
G75*
G03X126300000Y-51500000I-5000000J0D01*
G01*
X94100000Y-51500000D02*
G75*
G03X94100000Y-51500000I-3500000J0D01*
G01*
X79700000Y-111500000D02*
G75*
G03X79700000Y-111500000I-3100000J0D01*
G01*
X79700000Y-90000000D02*
G75*
G03X79700000Y-90000000I-3100000J0D01*
G01*
X79700000Y-68500000D02*
G75*
G03X79700000Y-68500000I-3100000J0D01*
G01*
X79700000Y-47000000D02*
G75*
G03X79700000Y-47000000I-3100000J0D01*
G01*
X69800000Y-158500000D02*
X130400000Y-158500000D01*
X69800000Y-30000000D02*
X130400000Y-30000000D01*
X130400000Y-30000000D02*
X130400000Y-158500000D01*
X69800000Y-30000000D02*
X69800000Y-158500000D01*
M02*
