G04 #@! TF.GenerationSoftware,KiCad,Pcbnew,(5.1.4-0)*
G04 #@! TF.CreationDate,2021-05-02T13:14:11+02:00*
G04 #@! TF.ProjectId,TetraVCA_3_0,54657472-6156-4434-915f-335f302e6b69,rev?*
G04 #@! TF.SameCoordinates,PX3041840PY89ff260*
G04 #@! TF.FileFunction,Paste,Bot*
G04 #@! TF.FilePolarity,Positive*
%FSLAX46Y46*%
G04 Gerber Fmt 4.6, Leading zero omitted, Abs format (unit mm)*
G04 Created by KiCad (PCBNEW (5.1.4-0)) date 2021-05-02 13:14:11*
%MOMM*%
%LPD*%
G04 APERTURE LIST*
%ADD10C,0.150000*%
%ADD11C,0.950000*%
G04 APERTURE END LIST*
D10*
G36*
X45960779Y99648856D02*
G01*
X45983834Y99645437D01*
X46006443Y99639773D01*
X46028387Y99631921D01*
X46049457Y99621956D01*
X46069448Y99609974D01*
X46088168Y99596090D01*
X46105438Y99580438D01*
X46121090Y99563168D01*
X46134974Y99544448D01*
X46146956Y99524457D01*
X46156921Y99503387D01*
X46164773Y99481443D01*
X46170437Y99458834D01*
X46173856Y99435779D01*
X46175000Y99412500D01*
X46175000Y98837500D01*
X46173856Y98814221D01*
X46170437Y98791166D01*
X46164773Y98768557D01*
X46156921Y98746613D01*
X46146956Y98725543D01*
X46134974Y98705552D01*
X46121090Y98686832D01*
X46105438Y98669562D01*
X46088168Y98653910D01*
X46069448Y98640026D01*
X46049457Y98628044D01*
X46028387Y98618079D01*
X46006443Y98610227D01*
X45983834Y98604563D01*
X45960779Y98601144D01*
X45937500Y98600000D01*
X45462500Y98600000D01*
X45439221Y98601144D01*
X45416166Y98604563D01*
X45393557Y98610227D01*
X45371613Y98618079D01*
X45350543Y98628044D01*
X45330552Y98640026D01*
X45311832Y98653910D01*
X45294562Y98669562D01*
X45278910Y98686832D01*
X45265026Y98705552D01*
X45253044Y98725543D01*
X45243079Y98746613D01*
X45235227Y98768557D01*
X45229563Y98791166D01*
X45226144Y98814221D01*
X45225000Y98837500D01*
X45225000Y99412500D01*
X45226144Y99435779D01*
X45229563Y99458834D01*
X45235227Y99481443D01*
X45243079Y99503387D01*
X45253044Y99524457D01*
X45265026Y99544448D01*
X45278910Y99563168D01*
X45294562Y99580438D01*
X45311832Y99596090D01*
X45330552Y99609974D01*
X45350543Y99621956D01*
X45371613Y99631921D01*
X45393557Y99639773D01*
X45416166Y99645437D01*
X45439221Y99648856D01*
X45462500Y99650000D01*
X45937500Y99650000D01*
X45960779Y99648856D01*
X45960779Y99648856D01*
G37*
D11*
X45700000Y99125000D03*
D10*
G36*
X45960779Y101398856D02*
G01*
X45983834Y101395437D01*
X46006443Y101389773D01*
X46028387Y101381921D01*
X46049457Y101371956D01*
X46069448Y101359974D01*
X46088168Y101346090D01*
X46105438Y101330438D01*
X46121090Y101313168D01*
X46134974Y101294448D01*
X46146956Y101274457D01*
X46156921Y101253387D01*
X46164773Y101231443D01*
X46170437Y101208834D01*
X46173856Y101185779D01*
X46175000Y101162500D01*
X46175000Y100587500D01*
X46173856Y100564221D01*
X46170437Y100541166D01*
X46164773Y100518557D01*
X46156921Y100496613D01*
X46146956Y100475543D01*
X46134974Y100455552D01*
X46121090Y100436832D01*
X46105438Y100419562D01*
X46088168Y100403910D01*
X46069448Y100390026D01*
X46049457Y100378044D01*
X46028387Y100368079D01*
X46006443Y100360227D01*
X45983834Y100354563D01*
X45960779Y100351144D01*
X45937500Y100350000D01*
X45462500Y100350000D01*
X45439221Y100351144D01*
X45416166Y100354563D01*
X45393557Y100360227D01*
X45371613Y100368079D01*
X45350543Y100378044D01*
X45330552Y100390026D01*
X45311832Y100403910D01*
X45294562Y100419562D01*
X45278910Y100436832D01*
X45265026Y100455552D01*
X45253044Y100475543D01*
X45243079Y100496613D01*
X45235227Y100518557D01*
X45229563Y100541166D01*
X45226144Y100564221D01*
X45225000Y100587500D01*
X45225000Y101162500D01*
X45226144Y101185779D01*
X45229563Y101208834D01*
X45235227Y101231443D01*
X45243079Y101253387D01*
X45253044Y101274457D01*
X45265026Y101294448D01*
X45278910Y101313168D01*
X45294562Y101330438D01*
X45311832Y101346090D01*
X45330552Y101359974D01*
X45350543Y101371956D01*
X45371613Y101381921D01*
X45393557Y101389773D01*
X45416166Y101395437D01*
X45439221Y101398856D01*
X45462500Y101400000D01*
X45937500Y101400000D01*
X45960779Y101398856D01*
X45960779Y101398856D01*
G37*
D11*
X45700000Y100875000D03*
D10*
G36*
X20910779Y109248856D02*
G01*
X20933834Y109245437D01*
X20956443Y109239773D01*
X20978387Y109231921D01*
X20999457Y109221956D01*
X21019448Y109209974D01*
X21038168Y109196090D01*
X21055438Y109180438D01*
X21071090Y109163168D01*
X21084974Y109144448D01*
X21096956Y109124457D01*
X21106921Y109103387D01*
X21114773Y109081443D01*
X21120437Y109058834D01*
X21123856Y109035779D01*
X21125000Y109012500D01*
X21125000Y108437500D01*
X21123856Y108414221D01*
X21120437Y108391166D01*
X21114773Y108368557D01*
X21106921Y108346613D01*
X21096956Y108325543D01*
X21084974Y108305552D01*
X21071090Y108286832D01*
X21055438Y108269562D01*
X21038168Y108253910D01*
X21019448Y108240026D01*
X20999457Y108228044D01*
X20978387Y108218079D01*
X20956443Y108210227D01*
X20933834Y108204563D01*
X20910779Y108201144D01*
X20887500Y108200000D01*
X20412500Y108200000D01*
X20389221Y108201144D01*
X20366166Y108204563D01*
X20343557Y108210227D01*
X20321613Y108218079D01*
X20300543Y108228044D01*
X20280552Y108240026D01*
X20261832Y108253910D01*
X20244562Y108269562D01*
X20228910Y108286832D01*
X20215026Y108305552D01*
X20203044Y108325543D01*
X20193079Y108346613D01*
X20185227Y108368557D01*
X20179563Y108391166D01*
X20176144Y108414221D01*
X20175000Y108437500D01*
X20175000Y109012500D01*
X20176144Y109035779D01*
X20179563Y109058834D01*
X20185227Y109081443D01*
X20193079Y109103387D01*
X20203044Y109124457D01*
X20215026Y109144448D01*
X20228910Y109163168D01*
X20244562Y109180438D01*
X20261832Y109196090D01*
X20280552Y109209974D01*
X20300543Y109221956D01*
X20321613Y109231921D01*
X20343557Y109239773D01*
X20366166Y109245437D01*
X20389221Y109248856D01*
X20412500Y109250000D01*
X20887500Y109250000D01*
X20910779Y109248856D01*
X20910779Y109248856D01*
G37*
D11*
X20650000Y108725000D03*
D10*
G36*
X20910779Y107498856D02*
G01*
X20933834Y107495437D01*
X20956443Y107489773D01*
X20978387Y107481921D01*
X20999457Y107471956D01*
X21019448Y107459974D01*
X21038168Y107446090D01*
X21055438Y107430438D01*
X21071090Y107413168D01*
X21084974Y107394448D01*
X21096956Y107374457D01*
X21106921Y107353387D01*
X21114773Y107331443D01*
X21120437Y107308834D01*
X21123856Y107285779D01*
X21125000Y107262500D01*
X21125000Y106687500D01*
X21123856Y106664221D01*
X21120437Y106641166D01*
X21114773Y106618557D01*
X21106921Y106596613D01*
X21096956Y106575543D01*
X21084974Y106555552D01*
X21071090Y106536832D01*
X21055438Y106519562D01*
X21038168Y106503910D01*
X21019448Y106490026D01*
X20999457Y106478044D01*
X20978387Y106468079D01*
X20956443Y106460227D01*
X20933834Y106454563D01*
X20910779Y106451144D01*
X20887500Y106450000D01*
X20412500Y106450000D01*
X20389221Y106451144D01*
X20366166Y106454563D01*
X20343557Y106460227D01*
X20321613Y106468079D01*
X20300543Y106478044D01*
X20280552Y106490026D01*
X20261832Y106503910D01*
X20244562Y106519562D01*
X20228910Y106536832D01*
X20215026Y106555552D01*
X20203044Y106575543D01*
X20193079Y106596613D01*
X20185227Y106618557D01*
X20179563Y106641166D01*
X20176144Y106664221D01*
X20175000Y106687500D01*
X20175000Y107262500D01*
X20176144Y107285779D01*
X20179563Y107308834D01*
X20185227Y107331443D01*
X20193079Y107353387D01*
X20203044Y107374457D01*
X20215026Y107394448D01*
X20228910Y107413168D01*
X20244562Y107430438D01*
X20261832Y107446090D01*
X20280552Y107459974D01*
X20300543Y107471956D01*
X20321613Y107481921D01*
X20343557Y107489773D01*
X20366166Y107495437D01*
X20389221Y107498856D01*
X20412500Y107500000D01*
X20887500Y107500000D01*
X20910779Y107498856D01*
X20910779Y107498856D01*
G37*
D11*
X20650000Y106975000D03*
D10*
G36*
X37360779Y106048856D02*
G01*
X37383834Y106045437D01*
X37406443Y106039773D01*
X37428387Y106031921D01*
X37449457Y106021956D01*
X37469448Y106009974D01*
X37488168Y105996090D01*
X37505438Y105980438D01*
X37521090Y105963168D01*
X37534974Y105944448D01*
X37546956Y105924457D01*
X37556921Y105903387D01*
X37564773Y105881443D01*
X37570437Y105858834D01*
X37573856Y105835779D01*
X37575000Y105812500D01*
X37575000Y105237500D01*
X37573856Y105214221D01*
X37570437Y105191166D01*
X37564773Y105168557D01*
X37556921Y105146613D01*
X37546956Y105125543D01*
X37534974Y105105552D01*
X37521090Y105086832D01*
X37505438Y105069562D01*
X37488168Y105053910D01*
X37469448Y105040026D01*
X37449457Y105028044D01*
X37428387Y105018079D01*
X37406443Y105010227D01*
X37383834Y105004563D01*
X37360779Y105001144D01*
X37337500Y105000000D01*
X36862500Y105000000D01*
X36839221Y105001144D01*
X36816166Y105004563D01*
X36793557Y105010227D01*
X36771613Y105018079D01*
X36750543Y105028044D01*
X36730552Y105040026D01*
X36711832Y105053910D01*
X36694562Y105069562D01*
X36678910Y105086832D01*
X36665026Y105105552D01*
X36653044Y105125543D01*
X36643079Y105146613D01*
X36635227Y105168557D01*
X36629563Y105191166D01*
X36626144Y105214221D01*
X36625000Y105237500D01*
X36625000Y105812500D01*
X36626144Y105835779D01*
X36629563Y105858834D01*
X36635227Y105881443D01*
X36643079Y105903387D01*
X36653044Y105924457D01*
X36665026Y105944448D01*
X36678910Y105963168D01*
X36694562Y105980438D01*
X36711832Y105996090D01*
X36730552Y106009974D01*
X36750543Y106021956D01*
X36771613Y106031921D01*
X36793557Y106039773D01*
X36816166Y106045437D01*
X36839221Y106048856D01*
X36862500Y106050000D01*
X37337500Y106050000D01*
X37360779Y106048856D01*
X37360779Y106048856D01*
G37*
D11*
X37100000Y105525000D03*
D10*
G36*
X37360779Y107798856D02*
G01*
X37383834Y107795437D01*
X37406443Y107789773D01*
X37428387Y107781921D01*
X37449457Y107771956D01*
X37469448Y107759974D01*
X37488168Y107746090D01*
X37505438Y107730438D01*
X37521090Y107713168D01*
X37534974Y107694448D01*
X37546956Y107674457D01*
X37556921Y107653387D01*
X37564773Y107631443D01*
X37570437Y107608834D01*
X37573856Y107585779D01*
X37575000Y107562500D01*
X37575000Y106987500D01*
X37573856Y106964221D01*
X37570437Y106941166D01*
X37564773Y106918557D01*
X37556921Y106896613D01*
X37546956Y106875543D01*
X37534974Y106855552D01*
X37521090Y106836832D01*
X37505438Y106819562D01*
X37488168Y106803910D01*
X37469448Y106790026D01*
X37449457Y106778044D01*
X37428387Y106768079D01*
X37406443Y106760227D01*
X37383834Y106754563D01*
X37360779Y106751144D01*
X37337500Y106750000D01*
X36862500Y106750000D01*
X36839221Y106751144D01*
X36816166Y106754563D01*
X36793557Y106760227D01*
X36771613Y106768079D01*
X36750543Y106778044D01*
X36730552Y106790026D01*
X36711832Y106803910D01*
X36694562Y106819562D01*
X36678910Y106836832D01*
X36665026Y106855552D01*
X36653044Y106875543D01*
X36643079Y106896613D01*
X36635227Y106918557D01*
X36629563Y106941166D01*
X36626144Y106964221D01*
X36625000Y106987500D01*
X36625000Y107562500D01*
X36626144Y107585779D01*
X36629563Y107608834D01*
X36635227Y107631443D01*
X36643079Y107653387D01*
X36653044Y107674457D01*
X36665026Y107694448D01*
X36678910Y107713168D01*
X36694562Y107730438D01*
X36711832Y107746090D01*
X36730552Y107759974D01*
X36750543Y107771956D01*
X36771613Y107781921D01*
X36793557Y107789773D01*
X36816166Y107795437D01*
X36839221Y107798856D01*
X36862500Y107800000D01*
X37337500Y107800000D01*
X37360779Y107798856D01*
X37360779Y107798856D01*
G37*
D11*
X37100000Y107275000D03*
D10*
G36*
X49810779Y89548856D02*
G01*
X49833834Y89545437D01*
X49856443Y89539773D01*
X49878387Y89531921D01*
X49899457Y89521956D01*
X49919448Y89509974D01*
X49938168Y89496090D01*
X49955438Y89480438D01*
X49971090Y89463168D01*
X49984974Y89444448D01*
X49996956Y89424457D01*
X50006921Y89403387D01*
X50014773Y89381443D01*
X50020437Y89358834D01*
X50023856Y89335779D01*
X50025000Y89312500D01*
X50025000Y88737500D01*
X50023856Y88714221D01*
X50020437Y88691166D01*
X50014773Y88668557D01*
X50006921Y88646613D01*
X49996956Y88625543D01*
X49984974Y88605552D01*
X49971090Y88586832D01*
X49955438Y88569562D01*
X49938168Y88553910D01*
X49919448Y88540026D01*
X49899457Y88528044D01*
X49878387Y88518079D01*
X49856443Y88510227D01*
X49833834Y88504563D01*
X49810779Y88501144D01*
X49787500Y88500000D01*
X49312500Y88500000D01*
X49289221Y88501144D01*
X49266166Y88504563D01*
X49243557Y88510227D01*
X49221613Y88518079D01*
X49200543Y88528044D01*
X49180552Y88540026D01*
X49161832Y88553910D01*
X49144562Y88569562D01*
X49128910Y88586832D01*
X49115026Y88605552D01*
X49103044Y88625543D01*
X49093079Y88646613D01*
X49085227Y88668557D01*
X49079563Y88691166D01*
X49076144Y88714221D01*
X49075000Y88737500D01*
X49075000Y89312500D01*
X49076144Y89335779D01*
X49079563Y89358834D01*
X49085227Y89381443D01*
X49093079Y89403387D01*
X49103044Y89424457D01*
X49115026Y89444448D01*
X49128910Y89463168D01*
X49144562Y89480438D01*
X49161832Y89496090D01*
X49180552Y89509974D01*
X49200543Y89521956D01*
X49221613Y89531921D01*
X49243557Y89539773D01*
X49266166Y89545437D01*
X49289221Y89548856D01*
X49312500Y89550000D01*
X49787500Y89550000D01*
X49810779Y89548856D01*
X49810779Y89548856D01*
G37*
D11*
X49550000Y89025000D03*
D10*
G36*
X49810779Y87798856D02*
G01*
X49833834Y87795437D01*
X49856443Y87789773D01*
X49878387Y87781921D01*
X49899457Y87771956D01*
X49919448Y87759974D01*
X49938168Y87746090D01*
X49955438Y87730438D01*
X49971090Y87713168D01*
X49984974Y87694448D01*
X49996956Y87674457D01*
X50006921Y87653387D01*
X50014773Y87631443D01*
X50020437Y87608834D01*
X50023856Y87585779D01*
X50025000Y87562500D01*
X50025000Y86987500D01*
X50023856Y86964221D01*
X50020437Y86941166D01*
X50014773Y86918557D01*
X50006921Y86896613D01*
X49996956Y86875543D01*
X49984974Y86855552D01*
X49971090Y86836832D01*
X49955438Y86819562D01*
X49938168Y86803910D01*
X49919448Y86790026D01*
X49899457Y86778044D01*
X49878387Y86768079D01*
X49856443Y86760227D01*
X49833834Y86754563D01*
X49810779Y86751144D01*
X49787500Y86750000D01*
X49312500Y86750000D01*
X49289221Y86751144D01*
X49266166Y86754563D01*
X49243557Y86760227D01*
X49221613Y86768079D01*
X49200543Y86778044D01*
X49180552Y86790026D01*
X49161832Y86803910D01*
X49144562Y86819562D01*
X49128910Y86836832D01*
X49115026Y86855552D01*
X49103044Y86875543D01*
X49093079Y86896613D01*
X49085227Y86918557D01*
X49079563Y86941166D01*
X49076144Y86964221D01*
X49075000Y86987500D01*
X49075000Y87562500D01*
X49076144Y87585779D01*
X49079563Y87608834D01*
X49085227Y87631443D01*
X49093079Y87653387D01*
X49103044Y87674457D01*
X49115026Y87694448D01*
X49128910Y87713168D01*
X49144562Y87730438D01*
X49161832Y87746090D01*
X49180552Y87759974D01*
X49200543Y87771956D01*
X49221613Y87781921D01*
X49243557Y87789773D01*
X49266166Y87795437D01*
X49289221Y87798856D01*
X49312500Y87800000D01*
X49787500Y87800000D01*
X49810779Y87798856D01*
X49810779Y87798856D01*
G37*
D11*
X49550000Y87275000D03*
D10*
G36*
X10450779Y72658856D02*
G01*
X10473834Y72655437D01*
X10496443Y72649773D01*
X10518387Y72641921D01*
X10539457Y72631956D01*
X10559448Y72619974D01*
X10578168Y72606090D01*
X10595438Y72590438D01*
X10611090Y72573168D01*
X10624974Y72554448D01*
X10636956Y72534457D01*
X10646921Y72513387D01*
X10654773Y72491443D01*
X10660437Y72468834D01*
X10663856Y72445779D01*
X10665000Y72422500D01*
X10665000Y71847500D01*
X10663856Y71824221D01*
X10660437Y71801166D01*
X10654773Y71778557D01*
X10646921Y71756613D01*
X10636956Y71735543D01*
X10624974Y71715552D01*
X10611090Y71696832D01*
X10595438Y71679562D01*
X10578168Y71663910D01*
X10559448Y71650026D01*
X10539457Y71638044D01*
X10518387Y71628079D01*
X10496443Y71620227D01*
X10473834Y71614563D01*
X10450779Y71611144D01*
X10427500Y71610000D01*
X9952500Y71610000D01*
X9929221Y71611144D01*
X9906166Y71614563D01*
X9883557Y71620227D01*
X9861613Y71628079D01*
X9840543Y71638044D01*
X9820552Y71650026D01*
X9801832Y71663910D01*
X9784562Y71679562D01*
X9768910Y71696832D01*
X9755026Y71715552D01*
X9743044Y71735543D01*
X9733079Y71756613D01*
X9725227Y71778557D01*
X9719563Y71801166D01*
X9716144Y71824221D01*
X9715000Y71847500D01*
X9715000Y72422500D01*
X9716144Y72445779D01*
X9719563Y72468834D01*
X9725227Y72491443D01*
X9733079Y72513387D01*
X9743044Y72534457D01*
X9755026Y72554448D01*
X9768910Y72573168D01*
X9784562Y72590438D01*
X9801832Y72606090D01*
X9820552Y72619974D01*
X9840543Y72631956D01*
X9861613Y72641921D01*
X9883557Y72649773D01*
X9906166Y72655437D01*
X9929221Y72658856D01*
X9952500Y72660000D01*
X10427500Y72660000D01*
X10450779Y72658856D01*
X10450779Y72658856D01*
G37*
D11*
X10190000Y72135000D03*
D10*
G36*
X10450779Y74408856D02*
G01*
X10473834Y74405437D01*
X10496443Y74399773D01*
X10518387Y74391921D01*
X10539457Y74381956D01*
X10559448Y74369974D01*
X10578168Y74356090D01*
X10595438Y74340438D01*
X10611090Y74323168D01*
X10624974Y74304448D01*
X10636956Y74284457D01*
X10646921Y74263387D01*
X10654773Y74241443D01*
X10660437Y74218834D01*
X10663856Y74195779D01*
X10665000Y74172500D01*
X10665000Y73597500D01*
X10663856Y73574221D01*
X10660437Y73551166D01*
X10654773Y73528557D01*
X10646921Y73506613D01*
X10636956Y73485543D01*
X10624974Y73465552D01*
X10611090Y73446832D01*
X10595438Y73429562D01*
X10578168Y73413910D01*
X10559448Y73400026D01*
X10539457Y73388044D01*
X10518387Y73378079D01*
X10496443Y73370227D01*
X10473834Y73364563D01*
X10450779Y73361144D01*
X10427500Y73360000D01*
X9952500Y73360000D01*
X9929221Y73361144D01*
X9906166Y73364563D01*
X9883557Y73370227D01*
X9861613Y73378079D01*
X9840543Y73388044D01*
X9820552Y73400026D01*
X9801832Y73413910D01*
X9784562Y73429562D01*
X9768910Y73446832D01*
X9755026Y73465552D01*
X9743044Y73485543D01*
X9733079Y73506613D01*
X9725227Y73528557D01*
X9719563Y73551166D01*
X9716144Y73574221D01*
X9715000Y73597500D01*
X9715000Y74172500D01*
X9716144Y74195779D01*
X9719563Y74218834D01*
X9725227Y74241443D01*
X9733079Y74263387D01*
X9743044Y74284457D01*
X9755026Y74304448D01*
X9768910Y74323168D01*
X9784562Y74340438D01*
X9801832Y74356090D01*
X9820552Y74369974D01*
X9840543Y74381956D01*
X9861613Y74391921D01*
X9883557Y74399773D01*
X9906166Y74405437D01*
X9929221Y74408856D01*
X9952500Y74410000D01*
X10427500Y74410000D01*
X10450779Y74408856D01*
X10450779Y74408856D01*
G37*
D11*
X10190000Y73885000D03*
D10*
G36*
X37360779Y84948856D02*
G01*
X37383834Y84945437D01*
X37406443Y84939773D01*
X37428387Y84931921D01*
X37449457Y84921956D01*
X37469448Y84909974D01*
X37488168Y84896090D01*
X37505438Y84880438D01*
X37521090Y84863168D01*
X37534974Y84844448D01*
X37546956Y84824457D01*
X37556921Y84803387D01*
X37564773Y84781443D01*
X37570437Y84758834D01*
X37573856Y84735779D01*
X37575000Y84712500D01*
X37575000Y84137500D01*
X37573856Y84114221D01*
X37570437Y84091166D01*
X37564773Y84068557D01*
X37556921Y84046613D01*
X37546956Y84025543D01*
X37534974Y84005552D01*
X37521090Y83986832D01*
X37505438Y83969562D01*
X37488168Y83953910D01*
X37469448Y83940026D01*
X37449457Y83928044D01*
X37428387Y83918079D01*
X37406443Y83910227D01*
X37383834Y83904563D01*
X37360779Y83901144D01*
X37337500Y83900000D01*
X36862500Y83900000D01*
X36839221Y83901144D01*
X36816166Y83904563D01*
X36793557Y83910227D01*
X36771613Y83918079D01*
X36750543Y83928044D01*
X36730552Y83940026D01*
X36711832Y83953910D01*
X36694562Y83969562D01*
X36678910Y83986832D01*
X36665026Y84005552D01*
X36653044Y84025543D01*
X36643079Y84046613D01*
X36635227Y84068557D01*
X36629563Y84091166D01*
X36626144Y84114221D01*
X36625000Y84137500D01*
X36625000Y84712500D01*
X36626144Y84735779D01*
X36629563Y84758834D01*
X36635227Y84781443D01*
X36643079Y84803387D01*
X36653044Y84824457D01*
X36665026Y84844448D01*
X36678910Y84863168D01*
X36694562Y84880438D01*
X36711832Y84896090D01*
X36730552Y84909974D01*
X36750543Y84921956D01*
X36771613Y84931921D01*
X36793557Y84939773D01*
X36816166Y84945437D01*
X36839221Y84948856D01*
X36862500Y84950000D01*
X37337500Y84950000D01*
X37360779Y84948856D01*
X37360779Y84948856D01*
G37*
D11*
X37100000Y84425000D03*
D10*
G36*
X37360779Y86698856D02*
G01*
X37383834Y86695437D01*
X37406443Y86689773D01*
X37428387Y86681921D01*
X37449457Y86671956D01*
X37469448Y86659974D01*
X37488168Y86646090D01*
X37505438Y86630438D01*
X37521090Y86613168D01*
X37534974Y86594448D01*
X37546956Y86574457D01*
X37556921Y86553387D01*
X37564773Y86531443D01*
X37570437Y86508834D01*
X37573856Y86485779D01*
X37575000Y86462500D01*
X37575000Y85887500D01*
X37573856Y85864221D01*
X37570437Y85841166D01*
X37564773Y85818557D01*
X37556921Y85796613D01*
X37546956Y85775543D01*
X37534974Y85755552D01*
X37521090Y85736832D01*
X37505438Y85719562D01*
X37488168Y85703910D01*
X37469448Y85690026D01*
X37449457Y85678044D01*
X37428387Y85668079D01*
X37406443Y85660227D01*
X37383834Y85654563D01*
X37360779Y85651144D01*
X37337500Y85650000D01*
X36862500Y85650000D01*
X36839221Y85651144D01*
X36816166Y85654563D01*
X36793557Y85660227D01*
X36771613Y85668079D01*
X36750543Y85678044D01*
X36730552Y85690026D01*
X36711832Y85703910D01*
X36694562Y85719562D01*
X36678910Y85736832D01*
X36665026Y85755552D01*
X36653044Y85775543D01*
X36643079Y85796613D01*
X36635227Y85818557D01*
X36629563Y85841166D01*
X36626144Y85864221D01*
X36625000Y85887500D01*
X36625000Y86462500D01*
X36626144Y86485779D01*
X36629563Y86508834D01*
X36635227Y86531443D01*
X36643079Y86553387D01*
X36653044Y86574457D01*
X36665026Y86594448D01*
X36678910Y86613168D01*
X36694562Y86630438D01*
X36711832Y86646090D01*
X36730552Y86659974D01*
X36750543Y86671956D01*
X36771613Y86681921D01*
X36793557Y86689773D01*
X36816166Y86695437D01*
X36839221Y86698856D01*
X36862500Y86700000D01*
X37337500Y86700000D01*
X37360779Y86698856D01*
X37360779Y86698856D01*
G37*
D11*
X37100000Y86175000D03*
D10*
G36*
X51260779Y68498856D02*
G01*
X51283834Y68495437D01*
X51306443Y68489773D01*
X51328387Y68481921D01*
X51349457Y68471956D01*
X51369448Y68459974D01*
X51388168Y68446090D01*
X51405438Y68430438D01*
X51421090Y68413168D01*
X51434974Y68394448D01*
X51446956Y68374457D01*
X51456921Y68353387D01*
X51464773Y68331443D01*
X51470437Y68308834D01*
X51473856Y68285779D01*
X51475000Y68262500D01*
X51475000Y67687500D01*
X51473856Y67664221D01*
X51470437Y67641166D01*
X51464773Y67618557D01*
X51456921Y67596613D01*
X51446956Y67575543D01*
X51434974Y67555552D01*
X51421090Y67536832D01*
X51405438Y67519562D01*
X51388168Y67503910D01*
X51369448Y67490026D01*
X51349457Y67478044D01*
X51328387Y67468079D01*
X51306443Y67460227D01*
X51283834Y67454563D01*
X51260779Y67451144D01*
X51237500Y67450000D01*
X50762500Y67450000D01*
X50739221Y67451144D01*
X50716166Y67454563D01*
X50693557Y67460227D01*
X50671613Y67468079D01*
X50650543Y67478044D01*
X50630552Y67490026D01*
X50611832Y67503910D01*
X50594562Y67519562D01*
X50578910Y67536832D01*
X50565026Y67555552D01*
X50553044Y67575543D01*
X50543079Y67596613D01*
X50535227Y67618557D01*
X50529563Y67641166D01*
X50526144Y67664221D01*
X50525000Y67687500D01*
X50525000Y68262500D01*
X50526144Y68285779D01*
X50529563Y68308834D01*
X50535227Y68331443D01*
X50543079Y68353387D01*
X50553044Y68374457D01*
X50565026Y68394448D01*
X50578910Y68413168D01*
X50594562Y68430438D01*
X50611832Y68446090D01*
X50630552Y68459974D01*
X50650543Y68471956D01*
X50671613Y68481921D01*
X50693557Y68489773D01*
X50716166Y68495437D01*
X50739221Y68498856D01*
X50762500Y68500000D01*
X51237500Y68500000D01*
X51260779Y68498856D01*
X51260779Y68498856D01*
G37*
D11*
X51000000Y67975000D03*
D10*
G36*
X51260779Y66748856D02*
G01*
X51283834Y66745437D01*
X51306443Y66739773D01*
X51328387Y66731921D01*
X51349457Y66721956D01*
X51369448Y66709974D01*
X51388168Y66696090D01*
X51405438Y66680438D01*
X51421090Y66663168D01*
X51434974Y66644448D01*
X51446956Y66624457D01*
X51456921Y66603387D01*
X51464773Y66581443D01*
X51470437Y66558834D01*
X51473856Y66535779D01*
X51475000Y66512500D01*
X51475000Y65937500D01*
X51473856Y65914221D01*
X51470437Y65891166D01*
X51464773Y65868557D01*
X51456921Y65846613D01*
X51446956Y65825543D01*
X51434974Y65805552D01*
X51421090Y65786832D01*
X51405438Y65769562D01*
X51388168Y65753910D01*
X51369448Y65740026D01*
X51349457Y65728044D01*
X51328387Y65718079D01*
X51306443Y65710227D01*
X51283834Y65704563D01*
X51260779Y65701144D01*
X51237500Y65700000D01*
X50762500Y65700000D01*
X50739221Y65701144D01*
X50716166Y65704563D01*
X50693557Y65710227D01*
X50671613Y65718079D01*
X50650543Y65728044D01*
X50630552Y65740026D01*
X50611832Y65753910D01*
X50594562Y65769562D01*
X50578910Y65786832D01*
X50565026Y65805552D01*
X50553044Y65825543D01*
X50543079Y65846613D01*
X50535227Y65868557D01*
X50529563Y65891166D01*
X50526144Y65914221D01*
X50525000Y65937500D01*
X50525000Y66512500D01*
X50526144Y66535779D01*
X50529563Y66558834D01*
X50535227Y66581443D01*
X50543079Y66603387D01*
X50553044Y66624457D01*
X50565026Y66644448D01*
X50578910Y66663168D01*
X50594562Y66680438D01*
X50611832Y66696090D01*
X50630552Y66709974D01*
X50650543Y66721956D01*
X50671613Y66731921D01*
X50693557Y66739773D01*
X50716166Y66745437D01*
X50739221Y66748856D01*
X50762500Y66750000D01*
X51237500Y66750000D01*
X51260779Y66748856D01*
X51260779Y66748856D01*
G37*
D11*
X51000000Y66225000D03*
D10*
G36*
X13560779Y51298856D02*
G01*
X13583834Y51295437D01*
X13606443Y51289773D01*
X13628387Y51281921D01*
X13649457Y51271956D01*
X13669448Y51259974D01*
X13688168Y51246090D01*
X13705438Y51230438D01*
X13721090Y51213168D01*
X13734974Y51194448D01*
X13746956Y51174457D01*
X13756921Y51153387D01*
X13764773Y51131443D01*
X13770437Y51108834D01*
X13773856Y51085779D01*
X13775000Y51062500D01*
X13775000Y50487500D01*
X13773856Y50464221D01*
X13770437Y50441166D01*
X13764773Y50418557D01*
X13756921Y50396613D01*
X13746956Y50375543D01*
X13734974Y50355552D01*
X13721090Y50336832D01*
X13705438Y50319562D01*
X13688168Y50303910D01*
X13669448Y50290026D01*
X13649457Y50278044D01*
X13628387Y50268079D01*
X13606443Y50260227D01*
X13583834Y50254563D01*
X13560779Y50251144D01*
X13537500Y50250000D01*
X13062500Y50250000D01*
X13039221Y50251144D01*
X13016166Y50254563D01*
X12993557Y50260227D01*
X12971613Y50268079D01*
X12950543Y50278044D01*
X12930552Y50290026D01*
X12911832Y50303910D01*
X12894562Y50319562D01*
X12878910Y50336832D01*
X12865026Y50355552D01*
X12853044Y50375543D01*
X12843079Y50396613D01*
X12835227Y50418557D01*
X12829563Y50441166D01*
X12826144Y50464221D01*
X12825000Y50487500D01*
X12825000Y51062500D01*
X12826144Y51085779D01*
X12829563Y51108834D01*
X12835227Y51131443D01*
X12843079Y51153387D01*
X12853044Y51174457D01*
X12865026Y51194448D01*
X12878910Y51213168D01*
X12894562Y51230438D01*
X12911832Y51246090D01*
X12930552Y51259974D01*
X12950543Y51271956D01*
X12971613Y51281921D01*
X12993557Y51289773D01*
X13016166Y51295437D01*
X13039221Y51298856D01*
X13062500Y51300000D01*
X13537500Y51300000D01*
X13560779Y51298856D01*
X13560779Y51298856D01*
G37*
D11*
X13300000Y50775000D03*
D10*
G36*
X13560779Y53048856D02*
G01*
X13583834Y53045437D01*
X13606443Y53039773D01*
X13628387Y53031921D01*
X13649457Y53021956D01*
X13669448Y53009974D01*
X13688168Y52996090D01*
X13705438Y52980438D01*
X13721090Y52963168D01*
X13734974Y52944448D01*
X13746956Y52924457D01*
X13756921Y52903387D01*
X13764773Y52881443D01*
X13770437Y52858834D01*
X13773856Y52835779D01*
X13775000Y52812500D01*
X13775000Y52237500D01*
X13773856Y52214221D01*
X13770437Y52191166D01*
X13764773Y52168557D01*
X13756921Y52146613D01*
X13746956Y52125543D01*
X13734974Y52105552D01*
X13721090Y52086832D01*
X13705438Y52069562D01*
X13688168Y52053910D01*
X13669448Y52040026D01*
X13649457Y52028044D01*
X13628387Y52018079D01*
X13606443Y52010227D01*
X13583834Y52004563D01*
X13560779Y52001144D01*
X13537500Y52000000D01*
X13062500Y52000000D01*
X13039221Y52001144D01*
X13016166Y52004563D01*
X12993557Y52010227D01*
X12971613Y52018079D01*
X12950543Y52028044D01*
X12930552Y52040026D01*
X12911832Y52053910D01*
X12894562Y52069562D01*
X12878910Y52086832D01*
X12865026Y52105552D01*
X12853044Y52125543D01*
X12843079Y52146613D01*
X12835227Y52168557D01*
X12829563Y52191166D01*
X12826144Y52214221D01*
X12825000Y52237500D01*
X12825000Y52812500D01*
X12826144Y52835779D01*
X12829563Y52858834D01*
X12835227Y52881443D01*
X12843079Y52903387D01*
X12853044Y52924457D01*
X12865026Y52944448D01*
X12878910Y52963168D01*
X12894562Y52980438D01*
X12911832Y52996090D01*
X12930552Y53009974D01*
X12950543Y53021956D01*
X12971613Y53031921D01*
X12993557Y53039773D01*
X13016166Y53045437D01*
X13039221Y53048856D01*
X13062500Y53050000D01*
X13537500Y53050000D01*
X13560779Y53048856D01*
X13560779Y53048856D01*
G37*
D11*
X13300000Y52525000D03*
D10*
G36*
X37260779Y63548856D02*
G01*
X37283834Y63545437D01*
X37306443Y63539773D01*
X37328387Y63531921D01*
X37349457Y63521956D01*
X37369448Y63509974D01*
X37388168Y63496090D01*
X37405438Y63480438D01*
X37421090Y63463168D01*
X37434974Y63444448D01*
X37446956Y63424457D01*
X37456921Y63403387D01*
X37464773Y63381443D01*
X37470437Y63358834D01*
X37473856Y63335779D01*
X37475000Y63312500D01*
X37475000Y62737500D01*
X37473856Y62714221D01*
X37470437Y62691166D01*
X37464773Y62668557D01*
X37456921Y62646613D01*
X37446956Y62625543D01*
X37434974Y62605552D01*
X37421090Y62586832D01*
X37405438Y62569562D01*
X37388168Y62553910D01*
X37369448Y62540026D01*
X37349457Y62528044D01*
X37328387Y62518079D01*
X37306443Y62510227D01*
X37283834Y62504563D01*
X37260779Y62501144D01*
X37237500Y62500000D01*
X36762500Y62500000D01*
X36739221Y62501144D01*
X36716166Y62504563D01*
X36693557Y62510227D01*
X36671613Y62518079D01*
X36650543Y62528044D01*
X36630552Y62540026D01*
X36611832Y62553910D01*
X36594562Y62569562D01*
X36578910Y62586832D01*
X36565026Y62605552D01*
X36553044Y62625543D01*
X36543079Y62646613D01*
X36535227Y62668557D01*
X36529563Y62691166D01*
X36526144Y62714221D01*
X36525000Y62737500D01*
X36525000Y63312500D01*
X36526144Y63335779D01*
X36529563Y63358834D01*
X36535227Y63381443D01*
X36543079Y63403387D01*
X36553044Y63424457D01*
X36565026Y63444448D01*
X36578910Y63463168D01*
X36594562Y63480438D01*
X36611832Y63496090D01*
X36630552Y63509974D01*
X36650543Y63521956D01*
X36671613Y63531921D01*
X36693557Y63539773D01*
X36716166Y63545437D01*
X36739221Y63548856D01*
X36762500Y63550000D01*
X37237500Y63550000D01*
X37260779Y63548856D01*
X37260779Y63548856D01*
G37*
D11*
X37000000Y63025000D03*
D10*
G36*
X37260779Y65298856D02*
G01*
X37283834Y65295437D01*
X37306443Y65289773D01*
X37328387Y65281921D01*
X37349457Y65271956D01*
X37369448Y65259974D01*
X37388168Y65246090D01*
X37405438Y65230438D01*
X37421090Y65213168D01*
X37434974Y65194448D01*
X37446956Y65174457D01*
X37456921Y65153387D01*
X37464773Y65131443D01*
X37470437Y65108834D01*
X37473856Y65085779D01*
X37475000Y65062500D01*
X37475000Y64487500D01*
X37473856Y64464221D01*
X37470437Y64441166D01*
X37464773Y64418557D01*
X37456921Y64396613D01*
X37446956Y64375543D01*
X37434974Y64355552D01*
X37421090Y64336832D01*
X37405438Y64319562D01*
X37388168Y64303910D01*
X37369448Y64290026D01*
X37349457Y64278044D01*
X37328387Y64268079D01*
X37306443Y64260227D01*
X37283834Y64254563D01*
X37260779Y64251144D01*
X37237500Y64250000D01*
X36762500Y64250000D01*
X36739221Y64251144D01*
X36716166Y64254563D01*
X36693557Y64260227D01*
X36671613Y64268079D01*
X36650543Y64278044D01*
X36630552Y64290026D01*
X36611832Y64303910D01*
X36594562Y64319562D01*
X36578910Y64336832D01*
X36565026Y64355552D01*
X36553044Y64375543D01*
X36543079Y64396613D01*
X36535227Y64418557D01*
X36529563Y64441166D01*
X36526144Y64464221D01*
X36525000Y64487500D01*
X36525000Y65062500D01*
X36526144Y65085779D01*
X36529563Y65108834D01*
X36535227Y65131443D01*
X36543079Y65153387D01*
X36553044Y65174457D01*
X36565026Y65194448D01*
X36578910Y65213168D01*
X36594562Y65230438D01*
X36611832Y65246090D01*
X36630552Y65259974D01*
X36650543Y65271956D01*
X36671613Y65281921D01*
X36693557Y65289773D01*
X36716166Y65295437D01*
X36739221Y65298856D01*
X36762500Y65300000D01*
X37237500Y65300000D01*
X37260779Y65298856D01*
X37260779Y65298856D01*
G37*
D11*
X37000000Y64775000D03*
D10*
G36*
X51260779Y45098856D02*
G01*
X51283834Y45095437D01*
X51306443Y45089773D01*
X51328387Y45081921D01*
X51349457Y45071956D01*
X51369448Y45059974D01*
X51388168Y45046090D01*
X51405438Y45030438D01*
X51421090Y45013168D01*
X51434974Y44994448D01*
X51446956Y44974457D01*
X51456921Y44953387D01*
X51464773Y44931443D01*
X51470437Y44908834D01*
X51473856Y44885779D01*
X51475000Y44862500D01*
X51475000Y44287500D01*
X51473856Y44264221D01*
X51470437Y44241166D01*
X51464773Y44218557D01*
X51456921Y44196613D01*
X51446956Y44175543D01*
X51434974Y44155552D01*
X51421090Y44136832D01*
X51405438Y44119562D01*
X51388168Y44103910D01*
X51369448Y44090026D01*
X51349457Y44078044D01*
X51328387Y44068079D01*
X51306443Y44060227D01*
X51283834Y44054563D01*
X51260779Y44051144D01*
X51237500Y44050000D01*
X50762500Y44050000D01*
X50739221Y44051144D01*
X50716166Y44054563D01*
X50693557Y44060227D01*
X50671613Y44068079D01*
X50650543Y44078044D01*
X50630552Y44090026D01*
X50611832Y44103910D01*
X50594562Y44119562D01*
X50578910Y44136832D01*
X50565026Y44155552D01*
X50553044Y44175543D01*
X50543079Y44196613D01*
X50535227Y44218557D01*
X50529563Y44241166D01*
X50526144Y44264221D01*
X50525000Y44287500D01*
X50525000Y44862500D01*
X50526144Y44885779D01*
X50529563Y44908834D01*
X50535227Y44931443D01*
X50543079Y44953387D01*
X50553044Y44974457D01*
X50565026Y44994448D01*
X50578910Y45013168D01*
X50594562Y45030438D01*
X50611832Y45046090D01*
X50630552Y45059974D01*
X50650543Y45071956D01*
X50671613Y45081921D01*
X50693557Y45089773D01*
X50716166Y45095437D01*
X50739221Y45098856D01*
X50762500Y45100000D01*
X51237500Y45100000D01*
X51260779Y45098856D01*
X51260779Y45098856D01*
G37*
D11*
X51000000Y44575000D03*
D10*
G36*
X51260779Y43348856D02*
G01*
X51283834Y43345437D01*
X51306443Y43339773D01*
X51328387Y43331921D01*
X51349457Y43321956D01*
X51369448Y43309974D01*
X51388168Y43296090D01*
X51405438Y43280438D01*
X51421090Y43263168D01*
X51434974Y43244448D01*
X51446956Y43224457D01*
X51456921Y43203387D01*
X51464773Y43181443D01*
X51470437Y43158834D01*
X51473856Y43135779D01*
X51475000Y43112500D01*
X51475000Y42537500D01*
X51473856Y42514221D01*
X51470437Y42491166D01*
X51464773Y42468557D01*
X51456921Y42446613D01*
X51446956Y42425543D01*
X51434974Y42405552D01*
X51421090Y42386832D01*
X51405438Y42369562D01*
X51388168Y42353910D01*
X51369448Y42340026D01*
X51349457Y42328044D01*
X51328387Y42318079D01*
X51306443Y42310227D01*
X51283834Y42304563D01*
X51260779Y42301144D01*
X51237500Y42300000D01*
X50762500Y42300000D01*
X50739221Y42301144D01*
X50716166Y42304563D01*
X50693557Y42310227D01*
X50671613Y42318079D01*
X50650543Y42328044D01*
X50630552Y42340026D01*
X50611832Y42353910D01*
X50594562Y42369562D01*
X50578910Y42386832D01*
X50565026Y42405552D01*
X50553044Y42425543D01*
X50543079Y42446613D01*
X50535227Y42468557D01*
X50529563Y42491166D01*
X50526144Y42514221D01*
X50525000Y42537500D01*
X50525000Y43112500D01*
X50526144Y43135779D01*
X50529563Y43158834D01*
X50535227Y43181443D01*
X50543079Y43203387D01*
X50553044Y43224457D01*
X50565026Y43244448D01*
X50578910Y43263168D01*
X50594562Y43280438D01*
X50611832Y43296090D01*
X50630552Y43309974D01*
X50650543Y43321956D01*
X50671613Y43331921D01*
X50693557Y43339773D01*
X50716166Y43345437D01*
X50739221Y43348856D01*
X50762500Y43350000D01*
X51237500Y43350000D01*
X51260779Y43348856D01*
X51260779Y43348856D01*
G37*
D11*
X51000000Y42825000D03*
D10*
G36*
X13060779Y34648856D02*
G01*
X13083834Y34645437D01*
X13106443Y34639773D01*
X13128387Y34631921D01*
X13149457Y34621956D01*
X13169448Y34609974D01*
X13188168Y34596090D01*
X13205438Y34580438D01*
X13221090Y34563168D01*
X13234974Y34544448D01*
X13246956Y34524457D01*
X13256921Y34503387D01*
X13264773Y34481443D01*
X13270437Y34458834D01*
X13273856Y34435779D01*
X13275000Y34412500D01*
X13275000Y33837500D01*
X13273856Y33814221D01*
X13270437Y33791166D01*
X13264773Y33768557D01*
X13256921Y33746613D01*
X13246956Y33725543D01*
X13234974Y33705552D01*
X13221090Y33686832D01*
X13205438Y33669562D01*
X13188168Y33653910D01*
X13169448Y33640026D01*
X13149457Y33628044D01*
X13128387Y33618079D01*
X13106443Y33610227D01*
X13083834Y33604563D01*
X13060779Y33601144D01*
X13037500Y33600000D01*
X12562500Y33600000D01*
X12539221Y33601144D01*
X12516166Y33604563D01*
X12493557Y33610227D01*
X12471613Y33618079D01*
X12450543Y33628044D01*
X12430552Y33640026D01*
X12411832Y33653910D01*
X12394562Y33669562D01*
X12378910Y33686832D01*
X12365026Y33705552D01*
X12353044Y33725543D01*
X12343079Y33746613D01*
X12335227Y33768557D01*
X12329563Y33791166D01*
X12326144Y33814221D01*
X12325000Y33837500D01*
X12325000Y34412500D01*
X12326144Y34435779D01*
X12329563Y34458834D01*
X12335227Y34481443D01*
X12343079Y34503387D01*
X12353044Y34524457D01*
X12365026Y34544448D01*
X12378910Y34563168D01*
X12394562Y34580438D01*
X12411832Y34596090D01*
X12430552Y34609974D01*
X12450543Y34621956D01*
X12471613Y34631921D01*
X12493557Y34639773D01*
X12516166Y34645437D01*
X12539221Y34648856D01*
X12562500Y34650000D01*
X13037500Y34650000D01*
X13060779Y34648856D01*
X13060779Y34648856D01*
G37*
D11*
X12800000Y34125000D03*
D10*
G36*
X13060779Y36398856D02*
G01*
X13083834Y36395437D01*
X13106443Y36389773D01*
X13128387Y36381921D01*
X13149457Y36371956D01*
X13169448Y36359974D01*
X13188168Y36346090D01*
X13205438Y36330438D01*
X13221090Y36313168D01*
X13234974Y36294448D01*
X13246956Y36274457D01*
X13256921Y36253387D01*
X13264773Y36231443D01*
X13270437Y36208834D01*
X13273856Y36185779D01*
X13275000Y36162500D01*
X13275000Y35587500D01*
X13273856Y35564221D01*
X13270437Y35541166D01*
X13264773Y35518557D01*
X13256921Y35496613D01*
X13246956Y35475543D01*
X13234974Y35455552D01*
X13221090Y35436832D01*
X13205438Y35419562D01*
X13188168Y35403910D01*
X13169448Y35390026D01*
X13149457Y35378044D01*
X13128387Y35368079D01*
X13106443Y35360227D01*
X13083834Y35354563D01*
X13060779Y35351144D01*
X13037500Y35350000D01*
X12562500Y35350000D01*
X12539221Y35351144D01*
X12516166Y35354563D01*
X12493557Y35360227D01*
X12471613Y35368079D01*
X12450543Y35378044D01*
X12430552Y35390026D01*
X12411832Y35403910D01*
X12394562Y35419562D01*
X12378910Y35436832D01*
X12365026Y35455552D01*
X12353044Y35475543D01*
X12343079Y35496613D01*
X12335227Y35518557D01*
X12329563Y35541166D01*
X12326144Y35564221D01*
X12325000Y35587500D01*
X12325000Y36162500D01*
X12326144Y36185779D01*
X12329563Y36208834D01*
X12335227Y36231443D01*
X12343079Y36253387D01*
X12353044Y36274457D01*
X12365026Y36294448D01*
X12378910Y36313168D01*
X12394562Y36330438D01*
X12411832Y36346090D01*
X12430552Y36359974D01*
X12450543Y36371956D01*
X12471613Y36381921D01*
X12493557Y36389773D01*
X12516166Y36395437D01*
X12539221Y36398856D01*
X12562500Y36400000D01*
X13037500Y36400000D01*
X13060779Y36398856D01*
X13060779Y36398856D01*
G37*
D11*
X12800000Y35875000D03*
D10*
G36*
X42060779Y38948856D02*
G01*
X42083834Y38945437D01*
X42106443Y38939773D01*
X42128387Y38931921D01*
X42149457Y38921956D01*
X42169448Y38909974D01*
X42188168Y38896090D01*
X42205438Y38880438D01*
X42221090Y38863168D01*
X42234974Y38844448D01*
X42246956Y38824457D01*
X42256921Y38803387D01*
X42264773Y38781443D01*
X42270437Y38758834D01*
X42273856Y38735779D01*
X42275000Y38712500D01*
X42275000Y38137500D01*
X42273856Y38114221D01*
X42270437Y38091166D01*
X42264773Y38068557D01*
X42256921Y38046613D01*
X42246956Y38025543D01*
X42234974Y38005552D01*
X42221090Y37986832D01*
X42205438Y37969562D01*
X42188168Y37953910D01*
X42169448Y37940026D01*
X42149457Y37928044D01*
X42128387Y37918079D01*
X42106443Y37910227D01*
X42083834Y37904563D01*
X42060779Y37901144D01*
X42037500Y37900000D01*
X41562500Y37900000D01*
X41539221Y37901144D01*
X41516166Y37904563D01*
X41493557Y37910227D01*
X41471613Y37918079D01*
X41450543Y37928044D01*
X41430552Y37940026D01*
X41411832Y37953910D01*
X41394562Y37969562D01*
X41378910Y37986832D01*
X41365026Y38005552D01*
X41353044Y38025543D01*
X41343079Y38046613D01*
X41335227Y38068557D01*
X41329563Y38091166D01*
X41326144Y38114221D01*
X41325000Y38137500D01*
X41325000Y38712500D01*
X41326144Y38735779D01*
X41329563Y38758834D01*
X41335227Y38781443D01*
X41343079Y38803387D01*
X41353044Y38824457D01*
X41365026Y38844448D01*
X41378910Y38863168D01*
X41394562Y38880438D01*
X41411832Y38896090D01*
X41430552Y38909974D01*
X41450543Y38921956D01*
X41471613Y38931921D01*
X41493557Y38939773D01*
X41516166Y38945437D01*
X41539221Y38948856D01*
X41562500Y38950000D01*
X42037500Y38950000D01*
X42060779Y38948856D01*
X42060779Y38948856D01*
G37*
D11*
X41800000Y38425000D03*
D10*
G36*
X42060779Y37198856D02*
G01*
X42083834Y37195437D01*
X42106443Y37189773D01*
X42128387Y37181921D01*
X42149457Y37171956D01*
X42169448Y37159974D01*
X42188168Y37146090D01*
X42205438Y37130438D01*
X42221090Y37113168D01*
X42234974Y37094448D01*
X42246956Y37074457D01*
X42256921Y37053387D01*
X42264773Y37031443D01*
X42270437Y37008834D01*
X42273856Y36985779D01*
X42275000Y36962500D01*
X42275000Y36387500D01*
X42273856Y36364221D01*
X42270437Y36341166D01*
X42264773Y36318557D01*
X42256921Y36296613D01*
X42246956Y36275543D01*
X42234974Y36255552D01*
X42221090Y36236832D01*
X42205438Y36219562D01*
X42188168Y36203910D01*
X42169448Y36190026D01*
X42149457Y36178044D01*
X42128387Y36168079D01*
X42106443Y36160227D01*
X42083834Y36154563D01*
X42060779Y36151144D01*
X42037500Y36150000D01*
X41562500Y36150000D01*
X41539221Y36151144D01*
X41516166Y36154563D01*
X41493557Y36160227D01*
X41471613Y36168079D01*
X41450543Y36178044D01*
X41430552Y36190026D01*
X41411832Y36203910D01*
X41394562Y36219562D01*
X41378910Y36236832D01*
X41365026Y36255552D01*
X41353044Y36275543D01*
X41343079Y36296613D01*
X41335227Y36318557D01*
X41329563Y36341166D01*
X41326144Y36364221D01*
X41325000Y36387500D01*
X41325000Y36962500D01*
X41326144Y36985779D01*
X41329563Y37008834D01*
X41335227Y37031443D01*
X41343079Y37053387D01*
X41353044Y37074457D01*
X41365026Y37094448D01*
X41378910Y37113168D01*
X41394562Y37130438D01*
X41411832Y37146090D01*
X41430552Y37159974D01*
X41450543Y37171956D01*
X41471613Y37181921D01*
X41493557Y37189773D01*
X41516166Y37195437D01*
X41539221Y37198856D01*
X41562500Y37200000D01*
X42037500Y37200000D01*
X42060779Y37198856D01*
X42060779Y37198856D01*
G37*
D11*
X41800000Y36675000D03*
D10*
G36*
X5670779Y85648856D02*
G01*
X5693834Y85645437D01*
X5716443Y85639773D01*
X5738387Y85631921D01*
X5759457Y85621956D01*
X5779448Y85609974D01*
X5798168Y85596090D01*
X5815438Y85580438D01*
X5831090Y85563168D01*
X5844974Y85544448D01*
X5856956Y85524457D01*
X5866921Y85503387D01*
X5874773Y85481443D01*
X5880437Y85458834D01*
X5883856Y85435779D01*
X5885000Y85412500D01*
X5885000Y84837500D01*
X5883856Y84814221D01*
X5880437Y84791166D01*
X5874773Y84768557D01*
X5866921Y84746613D01*
X5856956Y84725543D01*
X5844974Y84705552D01*
X5831090Y84686832D01*
X5815438Y84669562D01*
X5798168Y84653910D01*
X5779448Y84640026D01*
X5759457Y84628044D01*
X5738387Y84618079D01*
X5716443Y84610227D01*
X5693834Y84604563D01*
X5670779Y84601144D01*
X5647500Y84600000D01*
X5172500Y84600000D01*
X5149221Y84601144D01*
X5126166Y84604563D01*
X5103557Y84610227D01*
X5081613Y84618079D01*
X5060543Y84628044D01*
X5040552Y84640026D01*
X5021832Y84653910D01*
X5004562Y84669562D01*
X4988910Y84686832D01*
X4975026Y84705552D01*
X4963044Y84725543D01*
X4953079Y84746613D01*
X4945227Y84768557D01*
X4939563Y84791166D01*
X4936144Y84814221D01*
X4935000Y84837500D01*
X4935000Y85412500D01*
X4936144Y85435779D01*
X4939563Y85458834D01*
X4945227Y85481443D01*
X4953079Y85503387D01*
X4963044Y85524457D01*
X4975026Y85544448D01*
X4988910Y85563168D01*
X5004562Y85580438D01*
X5021832Y85596090D01*
X5040552Y85609974D01*
X5060543Y85621956D01*
X5081613Y85631921D01*
X5103557Y85639773D01*
X5126166Y85645437D01*
X5149221Y85648856D01*
X5172500Y85650000D01*
X5647500Y85650000D01*
X5670779Y85648856D01*
X5670779Y85648856D01*
G37*
D11*
X5410000Y85125000D03*
D10*
G36*
X5670779Y83898856D02*
G01*
X5693834Y83895437D01*
X5716443Y83889773D01*
X5738387Y83881921D01*
X5759457Y83871956D01*
X5779448Y83859974D01*
X5798168Y83846090D01*
X5815438Y83830438D01*
X5831090Y83813168D01*
X5844974Y83794448D01*
X5856956Y83774457D01*
X5866921Y83753387D01*
X5874773Y83731443D01*
X5880437Y83708834D01*
X5883856Y83685779D01*
X5885000Y83662500D01*
X5885000Y83087500D01*
X5883856Y83064221D01*
X5880437Y83041166D01*
X5874773Y83018557D01*
X5866921Y82996613D01*
X5856956Y82975543D01*
X5844974Y82955552D01*
X5831090Y82936832D01*
X5815438Y82919562D01*
X5798168Y82903910D01*
X5779448Y82890026D01*
X5759457Y82878044D01*
X5738387Y82868079D01*
X5716443Y82860227D01*
X5693834Y82854563D01*
X5670779Y82851144D01*
X5647500Y82850000D01*
X5172500Y82850000D01*
X5149221Y82851144D01*
X5126166Y82854563D01*
X5103557Y82860227D01*
X5081613Y82868079D01*
X5060543Y82878044D01*
X5040552Y82890026D01*
X5021832Y82903910D01*
X5004562Y82919562D01*
X4988910Y82936832D01*
X4975026Y82955552D01*
X4963044Y82975543D01*
X4953079Y82996613D01*
X4945227Y83018557D01*
X4939563Y83041166D01*
X4936144Y83064221D01*
X4935000Y83087500D01*
X4935000Y83662500D01*
X4936144Y83685779D01*
X4939563Y83708834D01*
X4945227Y83731443D01*
X4953079Y83753387D01*
X4963044Y83774457D01*
X4975026Y83794448D01*
X4988910Y83813168D01*
X5004562Y83830438D01*
X5021832Y83846090D01*
X5040552Y83859974D01*
X5060543Y83871956D01*
X5081613Y83881921D01*
X5103557Y83889773D01*
X5126166Y83895437D01*
X5149221Y83898856D01*
X5172500Y83900000D01*
X5647500Y83900000D01*
X5670779Y83898856D01*
X5670779Y83898856D01*
G37*
D11*
X5410000Y83375000D03*
D10*
G36*
X5710779Y64308856D02*
G01*
X5733834Y64305437D01*
X5756443Y64299773D01*
X5778387Y64291921D01*
X5799457Y64281956D01*
X5819448Y64269974D01*
X5838168Y64256090D01*
X5855438Y64240438D01*
X5871090Y64223168D01*
X5884974Y64204448D01*
X5896956Y64184457D01*
X5906921Y64163387D01*
X5914773Y64141443D01*
X5920437Y64118834D01*
X5923856Y64095779D01*
X5925000Y64072500D01*
X5925000Y63497500D01*
X5923856Y63474221D01*
X5920437Y63451166D01*
X5914773Y63428557D01*
X5906921Y63406613D01*
X5896956Y63385543D01*
X5884974Y63365552D01*
X5871090Y63346832D01*
X5855438Y63329562D01*
X5838168Y63313910D01*
X5819448Y63300026D01*
X5799457Y63288044D01*
X5778387Y63278079D01*
X5756443Y63270227D01*
X5733834Y63264563D01*
X5710779Y63261144D01*
X5687500Y63260000D01*
X5212500Y63260000D01*
X5189221Y63261144D01*
X5166166Y63264563D01*
X5143557Y63270227D01*
X5121613Y63278079D01*
X5100543Y63288044D01*
X5080552Y63300026D01*
X5061832Y63313910D01*
X5044562Y63329562D01*
X5028910Y63346832D01*
X5015026Y63365552D01*
X5003044Y63385543D01*
X4993079Y63406613D01*
X4985227Y63428557D01*
X4979563Y63451166D01*
X4976144Y63474221D01*
X4975000Y63497500D01*
X4975000Y64072500D01*
X4976144Y64095779D01*
X4979563Y64118834D01*
X4985227Y64141443D01*
X4993079Y64163387D01*
X5003044Y64184457D01*
X5015026Y64204448D01*
X5028910Y64223168D01*
X5044562Y64240438D01*
X5061832Y64256090D01*
X5080552Y64269974D01*
X5100543Y64281956D01*
X5121613Y64291921D01*
X5143557Y64299773D01*
X5166166Y64305437D01*
X5189221Y64308856D01*
X5212500Y64310000D01*
X5687500Y64310000D01*
X5710779Y64308856D01*
X5710779Y64308856D01*
G37*
D11*
X5450000Y63785000D03*
D10*
G36*
X5710779Y62558856D02*
G01*
X5733834Y62555437D01*
X5756443Y62549773D01*
X5778387Y62541921D01*
X5799457Y62531956D01*
X5819448Y62519974D01*
X5838168Y62506090D01*
X5855438Y62490438D01*
X5871090Y62473168D01*
X5884974Y62454448D01*
X5896956Y62434457D01*
X5906921Y62413387D01*
X5914773Y62391443D01*
X5920437Y62368834D01*
X5923856Y62345779D01*
X5925000Y62322500D01*
X5925000Y61747500D01*
X5923856Y61724221D01*
X5920437Y61701166D01*
X5914773Y61678557D01*
X5906921Y61656613D01*
X5896956Y61635543D01*
X5884974Y61615552D01*
X5871090Y61596832D01*
X5855438Y61579562D01*
X5838168Y61563910D01*
X5819448Y61550026D01*
X5799457Y61538044D01*
X5778387Y61528079D01*
X5756443Y61520227D01*
X5733834Y61514563D01*
X5710779Y61511144D01*
X5687500Y61510000D01*
X5212500Y61510000D01*
X5189221Y61511144D01*
X5166166Y61514563D01*
X5143557Y61520227D01*
X5121613Y61528079D01*
X5100543Y61538044D01*
X5080552Y61550026D01*
X5061832Y61563910D01*
X5044562Y61579562D01*
X5028910Y61596832D01*
X5015026Y61615552D01*
X5003044Y61635543D01*
X4993079Y61656613D01*
X4985227Y61678557D01*
X4979563Y61701166D01*
X4976144Y61724221D01*
X4975000Y61747500D01*
X4975000Y62322500D01*
X4976144Y62345779D01*
X4979563Y62368834D01*
X4985227Y62391443D01*
X4993079Y62413387D01*
X5003044Y62434457D01*
X5015026Y62454448D01*
X5028910Y62473168D01*
X5044562Y62490438D01*
X5061832Y62506090D01*
X5080552Y62519974D01*
X5100543Y62531956D01*
X5121613Y62541921D01*
X5143557Y62549773D01*
X5166166Y62555437D01*
X5189221Y62558856D01*
X5212500Y62560000D01*
X5687500Y62560000D01*
X5710779Y62558856D01*
X5710779Y62558856D01*
G37*
D11*
X5450000Y62035000D03*
D10*
G36*
X5710779Y42868856D02*
G01*
X5733834Y42865437D01*
X5756443Y42859773D01*
X5778387Y42851921D01*
X5799457Y42841956D01*
X5819448Y42829974D01*
X5838168Y42816090D01*
X5855438Y42800438D01*
X5871090Y42783168D01*
X5884974Y42764448D01*
X5896956Y42744457D01*
X5906921Y42723387D01*
X5914773Y42701443D01*
X5920437Y42678834D01*
X5923856Y42655779D01*
X5925000Y42632500D01*
X5925000Y42057500D01*
X5923856Y42034221D01*
X5920437Y42011166D01*
X5914773Y41988557D01*
X5906921Y41966613D01*
X5896956Y41945543D01*
X5884974Y41925552D01*
X5871090Y41906832D01*
X5855438Y41889562D01*
X5838168Y41873910D01*
X5819448Y41860026D01*
X5799457Y41848044D01*
X5778387Y41838079D01*
X5756443Y41830227D01*
X5733834Y41824563D01*
X5710779Y41821144D01*
X5687500Y41820000D01*
X5212500Y41820000D01*
X5189221Y41821144D01*
X5166166Y41824563D01*
X5143557Y41830227D01*
X5121613Y41838079D01*
X5100543Y41848044D01*
X5080552Y41860026D01*
X5061832Y41873910D01*
X5044562Y41889562D01*
X5028910Y41906832D01*
X5015026Y41925552D01*
X5003044Y41945543D01*
X4993079Y41966613D01*
X4985227Y41988557D01*
X4979563Y42011166D01*
X4976144Y42034221D01*
X4975000Y42057500D01*
X4975000Y42632500D01*
X4976144Y42655779D01*
X4979563Y42678834D01*
X4985227Y42701443D01*
X4993079Y42723387D01*
X5003044Y42744457D01*
X5015026Y42764448D01*
X5028910Y42783168D01*
X5044562Y42800438D01*
X5061832Y42816090D01*
X5080552Y42829974D01*
X5100543Y42841956D01*
X5121613Y42851921D01*
X5143557Y42859773D01*
X5166166Y42865437D01*
X5189221Y42868856D01*
X5212500Y42870000D01*
X5687500Y42870000D01*
X5710779Y42868856D01*
X5710779Y42868856D01*
G37*
D11*
X5450000Y42345000D03*
D10*
G36*
X5710779Y41118856D02*
G01*
X5733834Y41115437D01*
X5756443Y41109773D01*
X5778387Y41101921D01*
X5799457Y41091956D01*
X5819448Y41079974D01*
X5838168Y41066090D01*
X5855438Y41050438D01*
X5871090Y41033168D01*
X5884974Y41014448D01*
X5896956Y40994457D01*
X5906921Y40973387D01*
X5914773Y40951443D01*
X5920437Y40928834D01*
X5923856Y40905779D01*
X5925000Y40882500D01*
X5925000Y40307500D01*
X5923856Y40284221D01*
X5920437Y40261166D01*
X5914773Y40238557D01*
X5906921Y40216613D01*
X5896956Y40195543D01*
X5884974Y40175552D01*
X5871090Y40156832D01*
X5855438Y40139562D01*
X5838168Y40123910D01*
X5819448Y40110026D01*
X5799457Y40098044D01*
X5778387Y40088079D01*
X5756443Y40080227D01*
X5733834Y40074563D01*
X5710779Y40071144D01*
X5687500Y40070000D01*
X5212500Y40070000D01*
X5189221Y40071144D01*
X5166166Y40074563D01*
X5143557Y40080227D01*
X5121613Y40088079D01*
X5100543Y40098044D01*
X5080552Y40110026D01*
X5061832Y40123910D01*
X5044562Y40139562D01*
X5028910Y40156832D01*
X5015026Y40175552D01*
X5003044Y40195543D01*
X4993079Y40216613D01*
X4985227Y40238557D01*
X4979563Y40261166D01*
X4976144Y40284221D01*
X4975000Y40307500D01*
X4975000Y40882500D01*
X4976144Y40905779D01*
X4979563Y40928834D01*
X4985227Y40951443D01*
X4993079Y40973387D01*
X5003044Y40994457D01*
X5015026Y41014448D01*
X5028910Y41033168D01*
X5044562Y41050438D01*
X5061832Y41066090D01*
X5080552Y41079974D01*
X5100543Y41091956D01*
X5121613Y41101921D01*
X5143557Y41109773D01*
X5166166Y41115437D01*
X5189221Y41118856D01*
X5212500Y41120000D01*
X5687500Y41120000D01*
X5710779Y41118856D01*
X5710779Y41118856D01*
G37*
D11*
X5450000Y40595000D03*
D10*
G36*
X5660779Y106758856D02*
G01*
X5683834Y106755437D01*
X5706443Y106749773D01*
X5728387Y106741921D01*
X5749457Y106731956D01*
X5769448Y106719974D01*
X5788168Y106706090D01*
X5805438Y106690438D01*
X5821090Y106673168D01*
X5834974Y106654448D01*
X5846956Y106634457D01*
X5856921Y106613387D01*
X5864773Y106591443D01*
X5870437Y106568834D01*
X5873856Y106545779D01*
X5875000Y106522500D01*
X5875000Y105947500D01*
X5873856Y105924221D01*
X5870437Y105901166D01*
X5864773Y105878557D01*
X5856921Y105856613D01*
X5846956Y105835543D01*
X5834974Y105815552D01*
X5821090Y105796832D01*
X5805438Y105779562D01*
X5788168Y105763910D01*
X5769448Y105750026D01*
X5749457Y105738044D01*
X5728387Y105728079D01*
X5706443Y105720227D01*
X5683834Y105714563D01*
X5660779Y105711144D01*
X5637500Y105710000D01*
X5162500Y105710000D01*
X5139221Y105711144D01*
X5116166Y105714563D01*
X5093557Y105720227D01*
X5071613Y105728079D01*
X5050543Y105738044D01*
X5030552Y105750026D01*
X5011832Y105763910D01*
X4994562Y105779562D01*
X4978910Y105796832D01*
X4965026Y105815552D01*
X4953044Y105835543D01*
X4943079Y105856613D01*
X4935227Y105878557D01*
X4929563Y105901166D01*
X4926144Y105924221D01*
X4925000Y105947500D01*
X4925000Y106522500D01*
X4926144Y106545779D01*
X4929563Y106568834D01*
X4935227Y106591443D01*
X4943079Y106613387D01*
X4953044Y106634457D01*
X4965026Y106654448D01*
X4978910Y106673168D01*
X4994562Y106690438D01*
X5011832Y106706090D01*
X5030552Y106719974D01*
X5050543Y106731956D01*
X5071613Y106741921D01*
X5093557Y106749773D01*
X5116166Y106755437D01*
X5139221Y106758856D01*
X5162500Y106760000D01*
X5637500Y106760000D01*
X5660779Y106758856D01*
X5660779Y106758856D01*
G37*
D11*
X5400000Y106235000D03*
D10*
G36*
X5660779Y105008856D02*
G01*
X5683834Y105005437D01*
X5706443Y104999773D01*
X5728387Y104991921D01*
X5749457Y104981956D01*
X5769448Y104969974D01*
X5788168Y104956090D01*
X5805438Y104940438D01*
X5821090Y104923168D01*
X5834974Y104904448D01*
X5846956Y104884457D01*
X5856921Y104863387D01*
X5864773Y104841443D01*
X5870437Y104818834D01*
X5873856Y104795779D01*
X5875000Y104772500D01*
X5875000Y104197500D01*
X5873856Y104174221D01*
X5870437Y104151166D01*
X5864773Y104128557D01*
X5856921Y104106613D01*
X5846956Y104085543D01*
X5834974Y104065552D01*
X5821090Y104046832D01*
X5805438Y104029562D01*
X5788168Y104013910D01*
X5769448Y104000026D01*
X5749457Y103988044D01*
X5728387Y103978079D01*
X5706443Y103970227D01*
X5683834Y103964563D01*
X5660779Y103961144D01*
X5637500Y103960000D01*
X5162500Y103960000D01*
X5139221Y103961144D01*
X5116166Y103964563D01*
X5093557Y103970227D01*
X5071613Y103978079D01*
X5050543Y103988044D01*
X5030552Y104000026D01*
X5011832Y104013910D01*
X4994562Y104029562D01*
X4978910Y104046832D01*
X4965026Y104065552D01*
X4953044Y104085543D01*
X4943079Y104106613D01*
X4935227Y104128557D01*
X4929563Y104151166D01*
X4926144Y104174221D01*
X4925000Y104197500D01*
X4925000Y104772500D01*
X4926144Y104795779D01*
X4929563Y104818834D01*
X4935227Y104841443D01*
X4943079Y104863387D01*
X4953044Y104884457D01*
X4965026Y104904448D01*
X4978910Y104923168D01*
X4994562Y104940438D01*
X5011832Y104956090D01*
X5030552Y104969974D01*
X5050543Y104981956D01*
X5071613Y104991921D01*
X5093557Y104999773D01*
X5116166Y105005437D01*
X5139221Y105008856D01*
X5162500Y105010000D01*
X5637500Y105010000D01*
X5660779Y105008856D01*
X5660779Y105008856D01*
G37*
D11*
X5400000Y104485000D03*
M02*
