G04 #@! TF.GenerationSoftware,KiCad,Pcbnew,(5.1.4-0)*
G04 #@! TF.CreationDate,2021-05-02T13:14:11+02:00*
G04 #@! TF.ProjectId,TetraVCA_3_0,54657472-6156-4434-915f-335f302e6b69,rev?*
G04 #@! TF.SameCoordinates,PX3041840PY89ff260*
G04 #@! TF.FileFunction,Profile,NP*
%FSLAX46Y46*%
G04 Gerber Fmt 4.6, Leading zero omitted, Abs format (unit mm)*
G04 Created by KiCad (PCBNEW (5.1.4-0)) date 2021-05-02 13:14:11*
%MOMM*%
%LPD*%
G04 APERTURE LIST*
%ADD10C,0.050000*%
G04 APERTURE END LIST*
D10*
X62000000Y91000000D02*
X74000000Y91000000D01*
X62000000Y89000000D02*
X74000000Y89000000D01*
X106000000Y89000000D02*
X78000000Y89000000D01*
X106000000Y91000000D02*
X78000000Y91000000D01*
X110000000Y89000000D02*
X122000000Y89000000D01*
X110000000Y91000000D02*
X122000000Y91000000D01*
X110000000Y89000000D02*
G75*
G02X110000000Y91000000I0J1000000D01*
G01*
X106000000Y91000000D02*
G75*
G02X106000000Y89000000I0J-1000000D01*
G01*
X78000000Y89000000D02*
G75*
G02X78000000Y91000000I0J1000000D01*
G01*
X74000000Y91000000D02*
G75*
G02X74000000Y89000000I0J-1000000D01*
G01*
X111000000Y5000000D02*
G75*
G02X111000000Y7000000I0J1000000D01*
G01*
X107000000Y7000000D02*
G75*
G02X107000000Y5000000I0J-1000000D01*
G01*
X77000000Y5000000D02*
G75*
G02X77000000Y7000000I0J1000000D01*
G01*
X73000000Y7000000D02*
G75*
G02X73000000Y5000000I0J-1000000D01*
G01*
X14000000Y5000000D02*
G75*
G02X14000000Y7000000I0J1000000D01*
G01*
X10000000Y7000000D02*
G75*
G02X10000000Y5000000I0J-1000000D01*
G01*
X49000000Y5000000D02*
G75*
G02X49000000Y7000000I0J1000000D01*
G01*
X45000000Y7000000D02*
G75*
G02X45000000Y5000000I0J-1000000D01*
G01*
X60000000Y10000000D02*
G75*
G02X62000000Y10000000I1000000J0D01*
G01*
X62000000Y14000000D02*
G75*
G02X60000000Y14000000I-1000000J0D01*
G01*
X60000000Y36000000D02*
G75*
G02X62000000Y36000000I1000000J0D01*
G01*
X62000000Y40000000D02*
G75*
G02X60000000Y40000000I-1000000J0D01*
G01*
X60000000Y58000000D02*
G75*
G02X62000000Y58000000I1000000J0D01*
G01*
X62000000Y62000000D02*
G75*
G02X60000000Y62000000I-1000000J0D01*
G01*
X60000000Y78000000D02*
G75*
G02X62000000Y78000000I1000000J0D01*
G01*
X62000000Y82000000D02*
G75*
G02X60000000Y82000000I-1000000J0D01*
G01*
X60000000Y102000000D02*
G75*
G02X62000000Y102000000I1000000J0D01*
G01*
X62000000Y106000000D02*
G75*
G02X60000000Y106000000I-1000000J0D01*
G01*
X12000000Y117000000D02*
G75*
G02X12000000Y119000000I0J1000000D01*
G01*
X8000000Y119000000D02*
G75*
G02X8000000Y117000000I0J-1000000D01*
G01*
X47000000Y117000000D02*
G75*
G02X47000000Y119000000I0J1000000D01*
G01*
X43000000Y119000000D02*
G75*
G02X43000000Y117000000I0J-1000000D01*
G01*
X110000000Y117000000D02*
G75*
G02X110000000Y119000000I0J1000000D01*
G01*
X106000000Y119000000D02*
G75*
G02X106000000Y117000000I0J-1000000D01*
G01*
X78000000Y117000000D02*
G75*
G02X78000000Y119000000I0J1000000D01*
G01*
X74000000Y119000000D02*
G75*
G02X74000000Y117000000I0J-1000000D01*
G01*
X1666666Y0D02*
G75*
G03X1666666Y0I-1666666J0D01*
G01*
X-2500000Y0D02*
X2500000Y0D01*
X0Y2500000D02*
X0Y-2500000D01*
X14000000Y5000000D02*
X45000000Y5000000D01*
X45000000Y7000000D02*
X14000000Y7000000D01*
X49000000Y7000000D02*
X60000000Y7000000D01*
X62000000Y5000000D02*
X49000000Y5000000D01*
X73000000Y5000000D02*
X62000000Y5000000D01*
X62000000Y7000000D02*
X73000000Y7000000D01*
X77000000Y7000000D02*
X107000000Y7000000D01*
X107000000Y5000000D02*
X77000000Y5000000D01*
X111000000Y7000000D02*
X122000000Y7000000D01*
X122000000Y5000000D02*
X111000000Y5000000D01*
X122000000Y0D02*
X122000000Y5000000D01*
X0Y0D02*
X122000000Y0D01*
X0Y5000000D02*
X0Y0D01*
X10000000Y5000000D02*
X0Y5000000D01*
X0Y7000000D02*
X10000000Y7000000D01*
X110000000Y117000000D02*
X122000000Y117000000D01*
X78000000Y117000000D02*
X106000000Y117000000D01*
X0Y117000000D02*
X8000000Y117000000D01*
X12000000Y117000000D02*
X43000000Y117000000D01*
X43000000Y119000000D02*
X12000000Y119000000D01*
X60000000Y117000000D02*
X47000000Y117000000D01*
X74000000Y119000000D02*
X47000000Y119000000D01*
X62000000Y117000000D02*
X74000000Y117000000D01*
X106000000Y119000000D02*
X78000000Y119000000D01*
X122000000Y119000000D02*
X110000000Y119000000D01*
X122000000Y124000000D02*
X122000000Y119000000D01*
X0Y124000000D02*
X122000000Y124000000D01*
X0Y119000000D02*
X0Y124000000D01*
X8000000Y119000000D02*
X0Y119000000D01*
X122000000Y117000000D02*
X122000000Y91000000D01*
X62000000Y106000000D02*
X62000000Y117000000D01*
X62000000Y91000000D02*
X62000000Y102000000D01*
X62000000Y82000000D02*
X62000000Y89000000D01*
X60000000Y36000000D02*
X60000000Y14000000D01*
X62000000Y14000000D02*
X62000000Y36000000D01*
X60000000Y40000000D02*
X60000000Y58000000D01*
X62000000Y58000000D02*
X62000000Y40000000D01*
X62000000Y62000000D02*
X62000000Y78000000D01*
X60000000Y78000000D02*
X60000000Y62000000D01*
X60000000Y102000000D02*
X60000000Y82000000D01*
X60000000Y117000000D02*
X60000000Y106000000D01*
X62000000Y7000000D02*
X62000000Y10000000D01*
X60000000Y7000000D02*
X60000000Y10000000D01*
X122000000Y7000000D02*
X122000000Y89000000D01*
X0Y7000000D02*
X0Y117000000D01*
M02*
